{
  "project_info": {
    "project_number": "221759226020",
    "project_id": "mhews-9c66f",
    "storage_bucket": "mhews-9c66f.appspot.com"
  },
  "client": [
    {
      "client_info": {
        "mobilesdk_app_id": "1:221759226020:android:7c516160b9865a16002631",
        "android_client_info": {
          "package_name": "com.mhews.mhews"
        }
      },
      "oauth_client": [
        {
          "client_id": "221759226020-jlv35a61s8lto8itga20hr1orspemen8.apps.googleusercontent.com",
          "client_type": 3
        }
      ],
      "api_key": [
        {
          "current_key": "AIzaSyCJhGMR9emrLvr5ckgrxm9xPV5m4s1uYng"
        }
      ],
      "services": {
        "appinvite_service": {
          "other_platform_oauth_client": [
            {
              "client_id": "221759226020-jlv35a61s8lto8itga20hr1orspemen8.apps.googleusercontent.com",
              "client_type": 3
            }
          ]
        }
      }
    }
  ],
  "configuration_version": "1"
}